event_id,Event
1,Women's sprint
2,Women's skiathlon
3,Men's 1500m
4,Men's normal hill individual
5,Women's 3000m
6,Men's downhill
7,Men's sprint
8,Men's skiathlon
9,Women's moguls
10,Men's singles
11,Men's slopestyle
12,Men's 5000m
13,Women's giant slalom
14,Men's pursuit
15,Women's pursuit
16,Team event
17,Men's moguls
18,Women's normal hill individual
19,Women's slopestyle
20,Women's 1500m
21,Men's combined
22,Men's individual sprint
23,Women's individual sprint
24,Mixed doubles tournament
25,Women's singles
26,Women's 500m
27,Women's halfpipe
28,Men's 1500m
29,Women's slalom
30,Women's individual
31,Doubles
32,Individual normal hill/10km
33,Men's halfpipe
34,Women's 1000m
35,Men's super-G
36,Men's downhill
37,Women's giant slalom
38,Men's individual
39,Women's individual
40,Women's 10km freestyle
41,Women's 10km freestyle
42,Pairs skating
43,Team relay
44,Men's snowboard cross
45,"Men's 10,000m"
46,Men's super-G
47,Women's slalom
48,Men's 15 km freestyle
49,Women's aerials
50,Men's
51,Women's snowboard cross
52,Women's 5000m
53,Women's super-G
54,Women's mass start
55,Women's 4×5 km relay
56,Men's singles
57,Women's slopestyle
58,Men's 1000m
59,Women's 1500m
60,Women's
61,Men's large hill individual
62,Men's giant slalom
63,Men's mass start
64,Men's 4×10km relay
65,Men's slopestyle
66,Men's aerials
67,Women's 500m
68,Two-man
69,Two-man
70,Men's large hill team
71,Men's 500m
72,Mixed relay
73,Ice dancing
74,Women's halfpipe
75,Individual large hill/10km
76,Women's 3000m relay
77,Women's downhill
78,Two-woman
79,Men's team sprint
80,Women's team sprint
81,Men's ski cross
82,Men's team pursuit
83,Women's team pursuit
84,Men's slalom
85,Women's combined
86,Women's relay
87,Men's halfpipe
88,Women's tournament
89,Team large hill/4×5 km
90,Women's 1000m
91,Men's 500m
92,Men's 5000m relay
93,Women's big air
94,Women's combined
95,Men's relay
96,Ladies' singles
97,Women's ski cross
98,Women's big air
99,Men's 1000m
100,Mixed team
101,Men's 50km classical
102,Men's tournament
103,Men's big air
104,Men's parallel giant slalom
105,Women's parallel giant slalom
106,Men's mass start
107,Women's mass start
108,Four-man
109,Four-man
110,Women's 30km classical
111,Women's tournament
112,Men's tournament
113,Men's team
114,Men's road race
115,Women's épée
116,Men's 60kg
117,Men's 60kg
118,Women's 48 kg
119,Women's 48 kg
120,Men's 10m air pistol
121,Women's 10m air rifle
122,Men's 400m freestyle
123,Men's 400m individual medley
124,Women's 400m individual medley
125,Women's 4×100m freestyle relay
126,Women's 48 kg
127,Women's team
128,Women's road race
129,Women's synchronized 3 m springboard
130,Men's foil
131,Men's 66 kg
132,Men's 66 kg
133,Women's 52 kg
134,Women's 52 kg
135,Women's 10metre air pistol
136,Women's trap
137,Men's 100m breaststroke
138,Men's 4×100m freestyle relay
139,Women's 400m freestyle
140,Women's 100m butterfly
141,Men's 56 kg
142,Women's 53 kg
143,Men's synchronized 10m platform
144,Women's sabre
145,Men's artistic team all-around
146,Men's 73 kg
147,Men's 73 kg
148,Women's 57 kg
149,Women's 57 kg
150,Women's
151,Men's 10m air rifle
152,Men's trap
153,Men's 200m freestyle
154,Men's 100m backstroke
155,Women's 100m backstroke
156,Women's 100m backstroke
157,Women's 100m breaststroke
158,Men's 62 kg
159,Women's 58 kg
160,Men's slalom C-1
161,Women's synchronized 10m platform
162,Individual eventing
163,Team eventing
164,Men's épée
165,Women's artistic team all-around
166,Men's 81 kg
167,Men's 81 kg
168,Women's 63 kg
169,Women's 63 kg
170,Women's 25 metre pistol
171,Men's 200m butterfly
172,Men's 4×200m freestyle relay
173,Women's 200metre freestyle
174,Women's 200metre individual medley
175,Men's 69 kg
176,Women's 63 kg
177,Men's slalom K-1
178,Men's road time trial
179,Women's road time trial
180,Men's synchronized 3 m springboard
181,Men's sabre
182,Women's foil
183,Men's artistic individual all-around
184,Men's 90kg
185,Men's 90kg
186,Women's 70kg
187,Women's 70kg
188,Men's quadruple sculls
189,Women's quadruple sculls
190,Men's 50m pistol
191,Men's double trap
192,Men's 100m freestyle
193,Men's 200m breaststroke
194,Women's 200m butterfly
195,Women's 4×200m freestyle relay
196,Women's singles
197,Men's 77 kg
198,Women's 69 kg
199,Women's individual
200,Men's slalom C-2
201,Women's slalom K-1
202,Men's team sprint
203,Women's team épée
204,Women's artistic individual all-around
205,Men's 100kg
206,Men's 100kg
207,Women's 78 kg
208,Women's 78 kg
209,Men's coxless pair
210,Men's double sculls
211,Men's quadruple sculls
212,Men's lightweight coxless four
213,Women's double sculls
214,Women's quadruple sculls
215,Men's
216,Women's 50m rifle three positions
217,Men's 200m backstroke
218,Men's 200m individual medley
219,Women's 100m freestyle
220,Women's 100m freestyle
221,Women's 200m breaststroke
222,Men's singles
223,Men's individual
224,Men's 20km walk
225,"Women's 10,000m"
226,Women's shot put
227,Men's team pursuit
228,Women's team sprint
229,Team dressage
230,Men's team foil
231,Women's trampoline
232,Men's +100kg
233,Men's +100kg
234,Women's +78 kg
235,Women's +78 kg
236,Men's lightweight double sculls
237,Men's coxless four
238,Women's coxless pair
239,Women's lightweight double sculls
240,Men's 50m rifle prone
241,Women's skeet
242,Men's 50m freestyle
243,Men's 100m butterfly
244,Men's 100m butterfly
245,Men's 100m butterfly
246,Women's 800m freestyle
247,Women's 200m backstroke
248,Men's doubles
249,Men's 85 kg
250,Women's 75 kg
251,"Men's 10,000m"
252,Men's long jump
253,Men's discus throw
254,Women's 100m
255,Women's heptathlon
256,Women's Keirin
257,Women's team pursuit
258,Women's team sabre
259,Men's trampoline
260,Men's single sculls
261,Men's eight
262,Women's single sculls
263,Women's eight
264,Men's 25 m rapid fire pistol
265,Men's skeet
266,Men's 1500m freestyle
267,Men's 4×100m medley relay
268,Women's 50m freestyle
269,Women's 4×100m medley relay
270,Women's singles
271,Men's 94 kg
272,Men's 100m
273,Men's 400m
274,Women's marathon
275,Women's triple jump
276,Men's light flyweight
277,Men's light flyweight
278,Men's sprint
279,Women's 3 m springboard
280,Men's team épée
281,Men's
282,Men's floor
283,Men's pommel horse
284,Women's vault
285,Women's uneven bars
286,Men's RS:X
287,Women's RS:X
288,Men's 50m rifle three positions
289,Men's singles
290,Women's doubles
291,Mixed doubles
292,Women's +75 kg
293,Men's Greco-Roman 59 kg
294,Men's Greco-Roman 59 kg
295,Men's Greco-Roman 75 kg
296,Men's Greco-Roman 75 kg
297,Men's 800m
298,Men's pole vault
299,Women's 400m
300,Women's 3000m steeplechase
301,Women's hammer throw
302,Men's heavyweight
303,Men's heavyweight
304,Men's Omnium
305,Individual dressage
306,Men's vault
307,Men's rings
308,Women's balance beam
309,Laser
310,Laser Radial
311,Women's marathon 10km
312,Men's 105 kg
313,Men's Greco-Roman 85 kg
314,Men's Greco-Roman 85 kg
315,Men's Greco-Roman 130kg
316,Men's Greco-Roman 130kg
317,Men's 110m hurdles
318,Men's triple jump
319,Men's high jump
320,Women's 1500m
321,Women's discus throw
322,Men's lightweight
323,Men's lightweight
324,Men's C-1 1000m
325,Men's K-1 1000m
326,Women's K-1 200m
327,Women's K-2 500m
328,Men's Keirin
329,Women's Omnium
330,Women's sprint
331,Men's 3 m springboard
332,Men's parallel bars
333,Men's horizontal bar
334,Women's floor
335,Finn
336,Laser
337,Laser Radial
338,Nacra 17
339,Men's marathon 10km
340,Duet
341,Women's team
342,Men's +105 kg
343,Men's Greco-Roman 66 kg
344,Men's Greco-Roman 66 kg
345,Men's Greco-Roman 98 kg
346,Men's Greco-Roman 98 kg
347,Men's 3000m steeplechase
348,Women's 200m
349,Women's 100m hurdles
350,Women's long jump
351,Mixed doubles
352,Men's welterweight
353,Men's welterweight
354,Team jumping
355,Men's 470
356,Women's 470
357,Men's team
358,Men's 58 kg
359,Men's 58 kg
360,Women's 49 kg
361,Women's 49 kg
362,Women's beach
363,Women's freestyle 48 kg
364,Women's freestyle 48 kg
365,Women's freestyle 58 kg
366,Women's freestyle 58 kg
367,Women's freestyle 69 kg
368,Women's freestyle 69 kg
369,Men's 200m
370,Men's 400m hurdles
371,Men's shot put
372,Men's decathlon
373,Women's 400m hurdles
374,Women's javelin throw
375,Women's doubles
376,Men's light heavyweight
377,Men's light heavyweight
378,Men's C-1 200m
379,Men's K-2 200m
380,Men's K-2 1000m
381,Women's K-1 500m
382,Women's 10m platform
383,Men's
384,Men's 470
385,Women's 470
386,49er
387,49erFX
388,Men's 68 kg
389,Men's 68 kg
390,Women's 57 kg
391,Women's 57 kg
392,Men's triathlon
393,Men's beach
394,Women's freestyle 53 kg
395,Women's freestyle 53 kg
396,Women's freestyle 63 kg
397,Women's freestyle 63 kg
398,Women's freestyle 75 kg
399,Women's freestyle 75 kg
400,Men's 4×100m relay
401,Men's 50km walk
402,Men's hammer throw
403,Women's 5000m
404,Women's 4×100m relay
405,Women's 20km walk
406,Women's pole vault
407,Men's doubles
408,Women's singles
409,Women's lightweight
410,Women's lightweight
411,Men's BMX
412,Women's BMX
413,Individual jumping
414,Women's
415,Women's
416,Women's
417,Women's team
418,Men's 80kg
419,Men's 80kg
420,Women's 67 kg
421,Women's 67 kg
422,Women's
423,Men's freestyle 57 kg
424,Men's freestyle 57 kg
425,Men's freestyle 74 kg
426,Men's freestyle 74 kg
427,Men's 1500m
428,Men's 5000m
429,Men's 4×400m relay
430,Men's javelin throw
431,Women's 800m
432,Women's 4×400m relay
433,Women's high jump
434,Men's singles
435,Women's
436,Men's bantamweight
437,Men's bantamweight
438,Men's middleweight
439,Men's middleweight
440,Women's flyweight
441,Women's flyweight
442,Men's C-2 1000m
443,Men's K-1 200m
444,Men's K-1 200m
445,Men's K-4 1000m
446,Women's K-4 500m
447,Women's cross-country
448,Men's 10m platform
449,Men's
450,Women's
451,Women's rhythmicindividual all-around
452,Women's
453,Men's
454,Men's +80kg
455,Men's +80kg
456,Women's +67 kg
457,Women's +67 kg
458,Women's triathlon
459,Women's indoor
460,Men's
461,Men's freestyle 86 kg
462,Men's freestyle 86 kg
463,Men's freestyle 125 kg
464,Men's freestyle 125 kg
465,Men's marathon
466,Men's
467,Men's flyweight
468,Men's flyweight
469,Men's light welterweight
470,Men's light welterweight
471,Men's super heavyweight
472,Men's super heavyweight
473,Women's middleweight
474,Women's middleweight
475,Men's cross-country
476,Women's rhythmic group all-around
477,Men's
478,Men's indoor
479,Men's freestyle 65 kg
480,Men's freestyle 65 kg
481,Men's freestyle 97 kg
482,Men's freestyle 97 kg
